"UnlitGeneric"
{
	"$baseTexture" "freak_fortress_2/douchespoi/overlay"
	"$translucent" 1
	"$ignorez"     "1"
	"$no_fullbright" "1"	

	"Proxies" 
	{ 
		"AnimatedTexture" 
		{
			"animatedTextureVar" "$basetexture" 
			"animatedTextureFrameNumVar" "$frame" 
			"animatedTextureFrameRate" "17"
		 } 
	} 
}
