"VertexlitGeneric"
{
"$basetexture" "models/structures/combine/Armory_sheet"
"$surfaceprop" "MetalPanel"
"$model"	1
"$teamcolormap" "models/structures/combine/Armory_color"
"Proxies"
{
    "TeamColor"
    {
    }
}
}
