"VertexLitGeneric"
{
	"$basetexture"	"models/buildables/repair/repairnode_red"

	"$phong" "1"
	"$phongboost" "10"
	"$phongexponent" "25"
	"$lightwarptexture" "models/buildables/sentry1/Sentry1_lightwarp"
	"$phongfresnelranges"	"[.5 1.5 10]"
	
	"$basemapalphaphongmask" "1"


	"$rimlight" "1"		
	"$rimlightexponent" "4"				
	"$rimlightboost" "1.5"
	"$selfillum" "1"
	

}